1080: 05:19:15.003 - ---
1080: 05:19:15.003 - Service: "Photon Socket Server" starting
1080: 05:19:15.003 - Config File: D:\Photon-OnPremise-Server-SDK_v4-0-29-11263\deploy\bin_Win64\PhotonServer.config
1080: 05:19:15.050 - Will produce at most: 10 crash dumps
1080: 05:19:15.050 - Action: run as service
1308: 05:19:15.066 - Server Starting...
1308: 05:19:15.097 -    Tick count: 71136 (wraps in: 49.7094 days)
1308: 05:19:15.097 - Tick count 64: 71167
1308: 05:19:15.097 - Photon Version: 4.0.28.2962
1308: 05:19:15.097 - PID: 1068
1308: 05:19:15.097 - Current directory is: C:\Windows\system32
1308: 05:19:15.097 - Changing current directory to: D:\Photon-OnPremise-Server-SDK_v4-0-29-11263\deploy\bin_Win64
1308: 05:19:15.097 - Config File: D:\Photon-OnPremise-Server-SDK_v4-0-29-11263\deploy\bin_Win64\PhotonServer.config
1308: 05:19:15.331 - CService::OnException() - Exception: CXMLConfiguration::LoadDocument() - Failed to located required initial child element: "MMoDemo" - Source: "D:\Photon-OnPremise-Server-SDK_v4-0-29-11263\deploy\bin_Win64\PhotonServer.config"
1308: 05:19:15.393 - Server shutting down...
1308: 05:19:15.393 - Shutting down socket servers...
1308: 05:19:15.393 - Destroying servers
1308: 05:19:15.393 - Destroying WebSocket Outbound Connection Manager
1308: 05:19:15.393 - Destroying TCP Outbound Connection Manager
1308: 05:19:15.393 - Destroying TCP inactivity timer
1308: 05:19:15.393 - Destroying ENet timer wheel
1308: 05:19:15.393 - Destroying ENet host
1308: 05:19:15.393 - Destroying HTTP inactivity timer
1308: 05:19:15.393 - Destroying HTTP host
1308: 05:19:15.393 - Destroying HTTP Chunk host
1308: 05:19:15.393 - Destroying CLR dispatcher
1308: 05:19:15.393 - Destroying CLR applications
1308: 05:19:15.393 - Destroying ENet thread pool
1308: 05:19:15.393 - Destroying I/O thread pool
1308: 05:19:15.393 - Destroying ENet buffer allocator
1308: 05:19:15.393 - Destroying TCP buffer allocator
1308: 05:19:15.393 - Destroying TCP socket allocator
1308: 05:19:15.393 - Destroying ENet inbound socket allocator
1308: 05:19:15.393 - Destroying ENet outbound socket allocator
1308: 05:19:15.393 - Destroying shared datagram flow control data
1308: 05:19:15.534 - Shutdown complete...
1080: 05:21:22.794 - MessageBox: Photon Socket Server: MMoDemo - 4.0.28.2962Failed to start service
Error code: 110

Instance Name = "MMoDemo"
1080: 05:21:22.825 - Service shutting down: invalid instance name. Errorcode: 110
1080: 05:21:22.825 - Service shut down complete
